{
	"info": {
		"_postman_id": "0c5e424b-39d3-4701-8b7a-02d236335b96",
		"name": "PRACTICA MUNDIAL 2",
		"schema": "https://schema.getpostman.com/json/collection/v2.1.0/collection.json"
	},
	"item": [
		{
			"name": "GET",
			"request": {
				"method": "GET",
				"header": [],
				"body": {
					"mode": "raw",
					"raw": ""
				},
				"url": {
					"raw": ""
				}
			},
			"response": []
		},
		{
			"name": "POST LOGIN",
			"request": {
				"method": "POST",
				"header": [],
				"body": {
					"mode": "raw",
					"raw": "{\"login\":\"ESPAÑA\", \"password\":\"1234\"}"
				},
				"url": {
					"raw": "localhost:8080/login",
					"host": [
						"localhost"
					],
					"port": "8080",
					"path": [
						"login"
					]
				}
			},
			"response": []
		},
		{
			"name": "GET Concreto",
			"request": {
				"method": "GET",
				"header": [],
				"body": {
					"mode": "raw",
					"raw": ""
				},
				"url": {
					"raw": ""
				}
			},
			"response": []
		},
		{
			"name": "POST Partido",
			"request": {
				"method": "POST",
				"header": [
					{
						"key": "authorization",
						"value": "eyJhbGciOiJIUzI1NiIsInR5cCI6IkpXVCJ9.eyJsb2dpbiI6IkVTUEHDkUEiLCJhY2Nlc28iOiJCQVNJQyIsImlhdCI6MTU0MTk0MDY0NywiZXhwIjoxNTQxOTQyNDQ3fQ.D8MofheuDxo4qlrGBAoY5PZXlQ6sJXm-yoTlSDBJH40",
						"type": "text"
					}
				],
				"body": {
					"mode": "raw",
					"raw": "{\"EQUIPO_L\":\"Argentina\",\"EQUIPO_V\":\"Alemania\", \"FECHA\":\"1986-06-29 18:00:00\",\"SEDE\":\"Estadio Azteca\", \"RESULTADO_L\":3, \"RESULTADO_V\":2, \"ASISTENCIA\":90000}"
				},
				"url": {
					"raw": "localhost:8080/Partido",
					"host": [
						"localhost"
					],
					"port": "8080",
					"path": [
						"Partido"
					]
				}
			},
			"response": []
		},
		{
			"name": "PUT Partido",
			"request": {
				"method": "PUT",
				"header": [
					{
						"key": "authorization",
						"value": "eyJhbGciOiJIUzI1NiIsInR5cCI6IkpXVCJ9.eyJsb2dpbiI6IkFSR0VOVElOQSIsImFjY2VzbyI6IkJBU0lDIiwiaWF0IjoxNTQxOTU2NTYyLCJleHAiOjE1NDE5NTgzNjJ9.3DCNVdiuxVUsvyel_uA24sI9QKiRabTq0NHSqX89TlU",
						"type": "text"
					}
				],
				"body": {
					"mode": "raw",
					"raw": "{\"COD_ID\":17, \"EQUIPO_L\":\"PAISES BAJOS\",\"EQUIPO_V\":\"ESPAÑA\", \"FECHA\":\"2010-07-11 20:30:00\",\"SEDE\":\"JOHANNESBURGO\", \"RESULTADO_L\":0, \"RESULTADO_V\":1, \"ASISTENCIA\":95000}"
				},
				"url": {
					"raw": "localhost:8080/Partido",
					"host": [
						"localhost"
					],
					"port": "8080",
					"path": [
						"Partido"
					]
				}
			},
			"response": []
		},
		{
			"name": "DELETE Partido",
			"request": {
				"method": "GET",
				"header": [],
				"body": {
					"mode": "raw",
					"raw": ""
				},
				"url": {
					"raw": ""
				}
			},
			"response": []
		},
		{
			"name": "GET Importantes",
			"request": {
				"method": "GET",
				"header": [],
				"body": {
					"mode": "raw",
					"raw": ""
				},
				"url": {
					"raw": ""
				}
			},
			"response": []
		},
		{
			"name": "GET Seleccion",
			"request": {
				"method": "GET",
				"header": [
					{
						"key": "Authorization",
						"value": "eyJhbGciOiJIUzI1NiIsInR5cCI6IkpXVCJ9.eyJsb2dpbiI6IkVTUEHDkUEiLCJhY2Nlc28iOiJCQVNJQyIsImlhdCI6MTU0MTk1ODUwNiwiZXhwIjoxNTQxOTYwMzA2fQ.FPD1_fU0X-JOiIlqOjuhfCoSyMKKySS5YFJ52dTk95A",
						"type": "text"
					}
				],
				"body": {
					"mode": "raw",
					"raw": ""
				},
				"url": {
					"raw": "localhost:8080/Partidos_equipo/ARGENTINA",
					"host": [
						"localhost"
					],
					"port": "8080",
					"path": [
						"Partidos_equipo",
						"ARGENTINA"
					]
				}
			},
			"response": []
		},
		{
			"name": "GET Goles",
			"request": {
				"method": "GET",
				"header": [
					{
						"key": "Authorization",
						"value": "eyJhbGciOiJIUzI1NiIsInR5cCI6IkpXVCJ9.eyJsb2dpbiI6IkVTUEHDkUEiLCJhY2Nlc28iOiJCQVNJQyIsImlhdCI6MTU0MTk1ODYxMCwiZXhwIjoxNTQxOTYwNDEwfQ.BMNuTqPGrZAr3dQtYUmHw02cyfKvPYudno6azD2eyH0",
						"type": "text"
					}
				],
				"body": {
					"mode": "raw",
					"raw": ""
				},
				"url": {
					"raw": "localhost:8080/Partidos_goles_equipo/2/ESPAÑA",
					"host": [
						"localhost"
					],
					"port": "8080",
					"path": [
						"Partidos_goles_equipo",
						"2",
						"ESPAÑA"
					]
				}
			},
			"response": []
		}
	]
}